newmtl 0.000000_0.000000_0.000000_0.000000_0.000000
Ka 0.0000 0.0000 0.0000
Kd 0.0000 0.0000 0.0000
Ks 0.0000 0.0000 0.0000
Tf 0.0000 0.0000 0.0000
d 1
Ns 0
newmtl 0.223529_0.223529_0.223529_0.000000_0.000000
Ka 0.0000 0.0000 0.0000
Kd 0.2235 0.2235 0.2235
Ks 0.0000 0.0000 0.0000
Tf 0.0000 0.0000 0.0000
d 1
Ns 0
newmtl 0.250980_0.250980_0.250980_0.000000_0.000000
Ka 0.0000 0.0000 0.0000
Kd 0.251 0.251 0.251
Ks 0.0000 0.0000 0.0000
Tf 0.0000 0.0000 0.0000
d 1
Ns 0
newmtl 0.262745_0.282353_0.301961_0.000000_0.000000
Ka 0.0000 0.0000 0.0000
Kd 0.2627 0.2824 0.302
Ks 0.0000 0.0000 0.0000
Tf 0.0000 0.0000 0.0000
d 1
Ns 0
newmtl 0.298039_0.298039_0.298039_0.000000_0.000000
Ka 0.0000 0.0000 0.0000
Kd 0.298 0.298 0.298
Ks 0.0000 0.0000 0.0000
Tf 0.0000 0.0000 0.0000
d 1
Ns 0
newmtl 0.501961_0.250980_0.250980_0.000000_0.000000
Ka 0.0000 0.0000 0.0000
Kd 0.502 0.251 0.251
Ks 0.0000 0.0000 0.0000
Tf 0.0000 0.0000 0.0000
d 1
Ns 0
newmtl 0.501961_0.501961_0.501961_0.000000_0.000000
Ka 0.0000 0.0000 0.0000
Kd 0.502 0.502 0.502
Ks 0.0000 0.0000 0.0000
Tf 0.0000 0.0000 0.0000
d 1
Ns 0
newmtl 0.643137_0.615686_0.600000_0.000000_0.000000
Ka 0.0000 0.0000 0.0000
Kd 0.6431 0.6157 0.6
Ks 0.0000 0.0000 0.0000
Tf 0.0000 0.0000 0.0000
d 1
Ns 0
newmtl 0.666667_0.666667_0.666667_0.000000_0.000000
Ka 0.0000 0.0000 0.0000
Kd 0.6667 0.6667 0.6667
Ks 0.0000 0.0000 0.0000
Tf 0.0000 0.0000 0.0000
d 1
Ns 0
newmtl 0.752941_0.752941_0.752941_0.000000_0.000000
Ka 0.0000 0.0000 0.0000
Kd 0.7529 0.7529 0.7529
Ks 0.0000 0.0000 0.0000
Tf 0.0000 0.0000 0.0000
d 1
Ns 0
newmtl 0.752941_1.000000_0.752941_0.000000_0.000000
Ka 0.0000 0.0000 0.0000
Kd 0.7529 1 0.7529
Ks 0.0000 0.0000 0.0000
Tf 0.0000 0.0000 0.0000
d 1
Ns 0
newmtl 0.768627_0.768627_0.768627_0.000000_0.000000
Ka 0.0000 0.0000 0.0000
Kd 0.7686 0.7686 0.7686
Ks 0.0000 0.0000 0.0000
Tf 0.0000 0.0000 0.0000
d 1
Ns 0
newmtl 0.827451_0.666667_0.129412_0.000000_0.000000
Ka 0.0000 0.0000 0.0000
Kd 0.8275 0.6667 0.1294
Ks 0.0000 0.0000 0.0000
Tf 0.0000 0.0000 0.0000
d 1
Ns 0
newmtl 0.850980_0.850980_0.850980_0.000000_0.000000
Ka 0.0000 0.0000 0.0000
Kd 0.851 0.851 0.851
Ks 0.0000 0.0000 0.0000
Tf 0.0000 0.0000 0.0000
d 1
Ns 0
newmtl 0.854902_0.854902_0.854902_0.000000_0.000000
Ka 0.0000 0.0000 0.0000
Kd 0.8549 0.8549 0.8549
Ks 0.0000 0.0000 0.0000
Tf 0.0000 0.0000 0.0000
d 1
Ns 0
newmtl 0.894118_0.894118_0.894118_0.000000_0.000000
Ka 0.0000 0.0000 0.0000
Kd 0.8941 0.8941 0.8941
Ks 0.0000 0.0000 0.0000
Tf 0.0000 0.0000 0.0000
d 1
Ns 0
newmtl 0.917647_0.917647_0.917647_0.000000_0.623529
Ka 0.0000 0.0000 0.0000
Kd 0.9176 0.9176 0.9176
Ks 0.0000 0.0000 0.0000
Tf 0.0000 0.0000 0.0000
d 0.376471
Ns 0
newmtl 0.996078_0.870588_0.760784_0.000000_0.000000
Ka 0.0000 0.0000 0.0000
Kd 0.9961 0.8706 0.7608
Ks 0.0000 0.0000 0.0000
Tf 0.0000 0.0000 0.0000
d 1
Ns 0
newmtl 1.000000_1.000000_0.000000_0.000000_0.000000
Ka 0.0000 0.0000 0.0000
Kd 1 1 0.0000
Ks 0.0000 0.0000 0.0000
Tf 0.0000 0.0000 0.0000
d 1
Ns 0
newmtl 1.000000_1.000000_1.000000_0.000000_0.000000
Ka 0.0000 0.0000 0.0000
Kd 1 1 1
Ks 0.0000 0.0000 0.0000
Tf 0.0000 0.0000 0.0000
d 1
Ns 0
